Midterm
…
clean_data

# A tibble: 90,576 × 7
   academic_year district     school       student_group grade_level level     n
   <chr>         <chr>        <chr>        <chr>         <chr>       <chr> <int>
 1 2014-2015     Adrian SD 61 Adrian Elem… Hispanic/Lat… Grade 3     1         2
 2 2014-2015     Adrian SD 61 Adrian Elem… Hispanic/Lat… Grade 3     2         1
 3 2014-2015     Adrian SD 61 Adrian Elem… Hispanic/Lat… Grade 3     3         2
 4 2014-2015     Adrian SD 61 Adrian Elem… Hispanic/Lat… Grade 3     4         1
 5 2014-2015     Adrian SD 61 Adrian Elem… Hispanic/Lat… Grade 6     1         2
 6 2014-2015     Adrian SD 61 Adrian Elem… Hispanic/Lat… Grade 6     2         3
 7 2014-2015     Adrian SD 61 Adrian Elem… Hispanic/Lat… Grade 6     3         2
 8 2014-2015     Adrian SD 61 Adrian Elem… Hispanic/Lat… Grade 6     4         0
 9 2014-2015     Adrian SD 61 Adrian Elem… Hispanic/Lat… Grade 7     1         2
10 2014-2015     Adrian SD 61 Adrian Elem… Hispanic/Lat… Grade 7     2         2
# ℹ 90,566 more rows
…
final_data

# A tibble: 1,948 × 6
   academic_year district     n_schools level hispanic_latino white
   <chr>         <chr>            <int> <chr>           <int> <int>
 1 2014-2015     Adrian SD 61         2 1                   6     8
 2 2014-2015     Adrian SD 61         2 2                   6    17
 3 2014-2015     Adrian SD 61         2 3                   6    23
 4 2014-2015     Adrian SD 61         2 4                   1    22
 5 2015-2016     Adrian SD 61         2 1                   5     4
 6 2015-2016     Adrian SD 61         2 2                   3    15
 7 2015-2016     Adrian SD 61         2 3                   5    39
 8 2015-2016     Adrian SD 61         2 4                   0    36
 9 2016-2017     Adrian SD 61         2 1                   2     4
10 2016-2017     Adrian SD 61         2 2                   0    19
# ℹ 1,938 more rows
…
Warning: There were 485 warnings in `summarize()`.
The first warning was:
ℹ In argument: `estimate = list(estimate_v(data, "white", "hispanic_latino"))`.
ℹ In row 1.
Caused by warning in `fortify()`:
! Arguments in `...` must be used.
✖ Problematic argument:
• color = "black"
ℹ Did you misspell an argument name?
ℹ Run `dplyr::last_dplyr_warnings()` to see the 484 remaining warnings.

estimate1 

# A tibble: 484 × 7
# Groups:   academic_year, district, n_schools [484]
   academic_year district     n_schools data               auc     v1   v_se
   <chr>         <chr>            <int> <list>           <dbl>  <dbl>  <dbl>
 1 2014-2015     Adrian SD 61         2 <tibble [4 × 3]> 0.282 -0.814 0.0728
 2 2015-2016     Adrian SD 61         2 <tibble [4 × 3]> 0.161 -1.40  0.114 
 3 2016-2017     Adrian SD 61         2 <tibble [4 × 3]> 0.422 -0.278 0.381 
 4 2017-2018     Adrian SD 61         2 <tibble [4 × 3]> 0.300 -0.742 0.109 
 5 2014-2015     Amity SD 4J          4 <tibble [4 × 3]> 0.416 -0.301 0.0204
 6 2015-2016     Amity SD 4J          4 <tibble [4 × 3]> 0.432 -0.243 0.0210
 7 2016-2017     Amity SD 4J          4 <tibble [4 × 3]> 0.337 -0.594 0.0244
 8 2017-2018     Amity SD 4J          4 <tibble [4 × 3]> 0.469 -0.111 0.0207
 9 2016-2017     Annex SD 29          1 <tibble [4 × 3]> 0.588  0.313 0.449 
10 2014-2015     Ashland SD 5         6 <tibble [4 × 3]> 0.310 -0.703 0.0168
# ℹ 474 more rows

estimate2

# A tibble: 484 × 6
   academic_year district                        n_schools   auc     v2     v_se
   <chr>         <chr>                               <int> <dbl>  <dbl>    <dbl>
 1 2014-2015     Adrian SD 61                            2 0.282 -0.814 0.0728  
 2 2014-2015     Amity SD 4J                             4 0.416 -0.301 0.0204  
 3 2014-2015     Ashland SD 5                            6 0.310 -0.703 0.0168  
 4 2014-2015     Astoria SD 1                            3 0.383 -0.419 0.00910 
 5 2014-2015     Athena-Weston SD 29RJ                   3 0.320 -0.662 0.0686  
 6 2014-2015     Baker SD 5J                             9 0.387 -0.408 0.0148  
 7 2014-2015     Bandon SD 54                            3 0.574  0.265 0.0383  
 8 2014-2015     Banks SD 13                             3 0.416 -0.301 0.0295  
 9 2014-2015     Beaverton SD 48J                       53 0.284 -0.806 0.000363
10 2014-2015     Bend-LaPine Administrative SD 1        28 0.319 -0.665 0.00143 
# ℹ 474 more rows
…
library(ggtext)

#Method 1
dists <- unique(estimate1$district)[1:100]

estimate1_100 <- estimate1 |>
  filter(district %in% dists)

estimate1_nested <- estimate1_100 |>
  group_by(district, n_schools) |>
  nest()

estimate1_nested

# A tibble: 127 × 3
# Groups:   district, n_schools [127]
   district              n_schools data            
   <chr>                     <int> <list>          
 1 Adrian SD 61                  2 <tibble [4 × 5]>
 2 Amity SD 4J                   4 <tibble [4 × 5]>
 3 Annex SD 29                   1 <tibble [1 × 5]>
 4 Ashland SD 5                  6 <tibble [4 × 5]>
 5 Astoria SD 1                  3 <tibble [4 × 5]>
 6 Athena-Weston SD 29RJ         3 <tibble [4 × 5]>
 7 Baker SD 5J                   9 <tibble [4 × 5]>
 8 Bandon SD 54                  3 <tibble [4 × 5]>
 9 Banks SD 13                   3 <tibble [4 × 5]>
10 Beaverton SD 48J             53 <tibble [3 × 5]>
# ℹ 117 more rows
…
#Method 2

estimate2_100 <- estimate2 |>
  filter(district %in% dists)

estimate2_nested <- estimate2_100 |>
  nest_by(district, n_schools) 

estimate2_nested

# A tibble: 127 × 3
# Rowwise:  district, n_schools
   district              n_schools               data
   <chr>                     <int> <list<tibble[,4]>>
 1 Adrian SD 61                  2            [4 × 4]
 2 Amity SD 4J                   4            [4 × 4]
 3 Annex SD 29                   1            [1 × 4]
 4 Ashland SD 5                  6            [4 × 4]
 5 Astoria SD 1                  3            [4 × 4]
 6 Athena-Weston SD 29RJ         3            [4 × 4]
 7 Baker SD 5J                   9            [4 × 4]
 8 Bandon SD 54                  3            [4 × 4]
 9 Banks SD 13                   3            [4 × 4]
10 Beaverton SD 48J             53            [3 × 4]
# ℹ 117 more rows
…
